<svg xmlns="http://www.w3.org/2000/svg" width="9" height="9" viewBox="0 0 9 9">
  <g id="Grupo_2298" data-name="Grupo 2298" transform="translate(0.5 0.5)">
    <line id="Linha_309" data-name="Linha 309" y2="8" transform="translate(4.358)" fill="none" stroke="#333" stroke-linecap="round" stroke-width="1"/>
    <line id="Linha_310" data-name="Linha 310" y2="8" transform="translate(8 4) rotate(90)" fill="none" stroke="#333" stroke-linecap="round" stroke-width="1"/>
  </g>
</svg>
