<svg xmlns="http://www.w3.org/2000/svg" width="17.801" height="17.663" viewBox="0 0 17.801 17.663">
  <path id="Caminho_3798" data-name="Caminho 3798" d="M676.342,382.556c.054,0,.108,0,.162,0a7.63,7.63,0,0,1,7.55,6.605.624.624,0,0,0,.74.524.649.649,0,0,0,.521-.749,8.886,8.886,0,0,0-7.586-7.589l-.451-.062.435-.133a4.644,4.644,0,1,0-5.89-4.516,4.686,4.686,0,0,0,3.312,4.516l.435.133-.451.062a8.883,8.883,0,0,0-7.585,7.585.652.652,0,0,0,.52.755.637.637,0,0,0,.736-.528A7.632,7.632,0,0,1,676.342,382.556Zm-2.368-3.523a3.322,3.322,0,0,1-.9-2.4,3.4,3.4,0,0,1,3.345-3.44l.246,0-.016.016a3.408,3.408,0,0,1,3.115,3.43c0,.073,0,.152,0,.23a3.351,3.351,0,0,1-3.343,3.229c-.039,0-.08,0-.119,0A3.322,3.322,0,0,1,673.974,379.033Z" transform="translate(-667.524 -372.034)" fill="#333" opacity="0.4"/>
</svg>
