<svg xmlns="http://www.w3.org/2000/svg" width="10" height="10" viewBox="0 0 10 10">
  <path id="_8687100_ic_fluent_delete_regular_icon" data-name="8687100_ic_fluent_delete_regular_icon" d="M8.5,3.015a.958.958,0,0,0-1-.909.958.958,0,0,0-1,.909H5.833A1.6,1.6,0,0,1,7.5,1.5,1.6,1.6,0,0,1,9.167,3.015h3a.3.3,0,1,1,0,.606H11.8l-.864,6.806A1.3,1.3,0,0,1,9.609,11.5H5.391a1.3,1.3,0,0,1-1.325-1.073L3.2,3.621H2.833a.326.326,0,0,1-.328-.249L2.5,3.318a.319.319,0,0,1,.333-.3Zm2.625.606H3.874l.855,6.736a.647.647,0,0,0,.662.537H9.609a.647.647,0,0,0,.662-.537ZM6.5,5.136a.322.322,0,0,1,.328.217l.005.048V9.114a.305.305,0,0,1-.333.265.322.322,0,0,1-.328-.218l-.005-.048V5.4A.305.305,0,0,1,6.5,5.136Zm2,0a.322.322,0,0,1,.328.217l.005.048V9.114a.305.305,0,0,1-.333.265.322.322,0,0,1-.328-.218l-.005-.048V5.4A.305.305,0,0,1,8.5,5.136Z" transform="translate(-2.5 -1.5)" fill="#f44848"/>
</svg>
